{
  "fetchAllRoom": {
    "title": "Fetch Rooms",
    "description": "This API lets you fetch all of your rooms.",
    "headers": [
      {
        "key": "Authorization",
        "value": "$YOUR_TOKEN"
      },
      {
        "key": "Content-Type",
        "value": "application/json"
      }
    ],
    "methodType": "GET",
    "postParameters": [],
    "queryParameters": [
      {
        "key": "page",
        "defaultValue": "`1`",
        "value": "1",
        "description": "#### The page number containing the requested rooms.",
        "required": false
      },
      {
        "key": "perPage",
        "defaultValue": "`20`",
        "value": "20",
        "description": "#### Number of rooms you want to return per page.",
        "required": false
      }
    ],
    "parameters": [],
    "apiEndpoint": "https://api.videosdk.live/v2/rooms",
    "response": {
      "pageInfo": {
        "currentPage": 1,
        "perPage": 1,
        "lastPage": 5,
        "total": 10
      },
      "data": [
        {
          "roomId": "abcd-efgh-ijkl",
          "customRoomId": "aaaa-bbbb-cccc",
          "disabled": false,
          "createdAt": "2022-03-25T04:19:32.380Z",
          "updatedAt": "2022-03-25T04:19:32.380Z",
          "user": {
            "name": "Test User",
            "email": "test@email.com",
            "discontinuedReason": null,
            "id": "5fa671e77b80d58c11cbca95"
          },
          "id": "623d42d472498060cccb51f2",
          "links": {
            "get_room": "https://api.videosdk.live/v2/rooms/abcd-efgh-ijkl",
            "get_session": "https://api.videosdk.live/v2/sessions/"
          }
        }
      ]
    }
  }
}
