{
  "fetchSessions": {
    "title": "Fetch Sessions",
    "description": "Allows you to the fetch the details for all sessions within a room. Optionally, if you don't specify a room ID, you will fetch all of the sessions for all of your rooms.",
    "headers": [
      {
        "key": "Authorization",
        "value": "$YOUR_TOKEN"
      },
      {
        "key": "Content-Type",
        "value": "application/json"
      }
    ],
    "methodType": "GET",
    "postParameters": [],
    "queryParameters": [
      {
        "key": "roomId",
        "value": "xyz",
        "description": "#### The ID of the room.",
        "required": true
      },
      {
        "key": "customRoomId",
        "value": "xyz",
        "description": "#### A custom ID provided during the creation of the room.",
        "required": false
      },
      {
        "key": "page",
        "defaultValue": "`1`",
        "value": "1",
        "description": "#### The page number containing the requested sessions.",
        "required": false
      },
      {
        "key": "perPage",
        "defaultValue": "`20`",
        "value": "20",
        "description": "#### Number of sessions to return per page.",
        "required": false
      }
    ],
    "parameters": [],
    "apiEndpoint": "https://api.videosdk.live/v2/sessions/",
    "response": {
      "pageInfo": {
        "currentPage": 1,
        "perPage": 2,
        "lastPage": 5,
        "total": 10
      },
      "data": [
        {
          "id": "621497578bea0d0404c35c4c",
          "roomId": "abcd-efgh-ijkl",
          "start": "2022-02-22T07:57:11.505Z",
          "end": "2022-02-22T07:58:11.505Z",
          "participants": [
            {
              "participantId": "but3ihic",
              "name": "Jacques",
              "timelog": [
                {
                  "start": "2022-02-22T07:57:13.420Z",
                  "end": "2022-02-22T07:59:13.420Z"
                }
              ]
            },
            {
              "participantId": "mcg1jq0s",
              "name": "Rahul",
              "timelog": [
                {
                  "start": "2022-02-22T07:57:50.210Z",
                  "end": "2022-02-22T07:59:13.420Z"
                }
              ]
            }
          ],
          "status": "ended",
          "links": {
            "get_room": "https://api.videosdk.live/v2/rooms/abcd-efgh-ijkl",
            "get_session": "https://api.videosdk.live/v2/sessions/621497578bea0d0404c35c4c"
          }
        }
      ]
    }
  }
}